Digital_Clock/Beep/Flash_TB.vcd
$date
	Wed Jun 05 19:22:46 2024
$end
$version
	Icarus Verilog
$end
$timescale
	1ps
$end
$scope module Flash_TB $end
$var wire 1 ! out $end
$var reg 1 " clk $end
$var reg 1 # in $end
$var reg 1 $ rst $end
$scope module flash_dut $end
$var wire 1 " clk $end
$var wire 1 # in $end
$var wire 1 $ rst $end
$var wire 4 % state [3:0] $end
$var wire 4 & next [3:0] $end
$var wire 1 ' done $end
$var reg 4 ( next1 [3:0] $end
$var reg 1 ! out $end
$var reg 1 ) tload $end
$var reg 1 * tsel $end
$scope module state_reg $end
$var wire 1 " i_Clk $end
$var wire 4 + i_Din [3:0] $end
$var parameter 32 , n $end
$var reg 4 - o_Qout [3:0] $end
$upscope $end
$scope module timer $end
$var wire 1 " clk $end
$var wire 1 ' done $end
$var wire 1 $ rst $end
$var wire 1 ) tload $end
$var wire 1 * tsel $end
$var wire 3 . count [2:0] $end
$var parameter 32 / n $end
$var reg 3 0 next_count [2:0] $end
$scope module state $end
$var wire 1 " i_Clk $end
$var wire 3 1 i_Din [2:0] $end
$var parameter 32 2 n $end
$var reg 3 3 o_Qout [2:0] $end
$upscope $end
$upscope $end
$upscope $end
$upscope $end
$enddefinitions $end
$comment Show the parameter values. $end
$dumpall
b11 2
b11 /
b100 ,
$end
#0
$dumpvars
bx 3
b0 1
b0 0
bx .
bx -
b0 +
1*
x)
b0x0x (
x'
b0 &
bx %
1$
0#
0"
1!
$end
#5000
0!
1)
b0 (
1'
b0 %
b0 -
b0 .
b0 3
1"
#10000
b1 &
b1 +
b1 (
b10 0
b10 1
0"
1#
0$
#15000
0)
b1 &
b1 +
0'
b1 0
b1 1
1!
0*
b1 (
b10 .
b10 3
b1 %
b1 -
1"
#20000
0"
0#
#25000
b0 0
b0 1
b1 .
b1 3
1"
#30000
0"
#35000
b10 &
b10 +
1)
b10 (
1'
b1 0
b1 1
b0 .
b0 3
1"
#40000
0"
#45000
b0 0
b0 1
0!
0)
1*
0'
b10 %
b10 -
b1 .
b1 3
1"
#50000
0"
#55000
b11 &
b11 +
1)
b11 (
1'
b10 0
b10 1
b0 .
b0 3
1"
#60000
0"
#65000
b1 0
b1 1
1!
0)
0*
0'
b11 %
b11 -
b10 .
b10 3
1"
#70000
0"
#75000
b0 0
b0 1
b1 .
b1 3
1"
#80000
0"
#85000
b100 &
b100 +
1)
b100 (
1'
b1 0
b1 1
b0 .
b0 3
1"
#90000
0"
#95000
0)
b100 &
b100 +
0'
b0 0
b0 1
0!
1*
b100 (
b1 .
b1 3
b100 %
b100 -
1"
#100000
0"
#105000
b101 &
b101 +
1)
b101 (
1'
b10 0
b10 1
b0 .
b0 3
1"
#110000
0"
#115000
b1 0
b1 1
0)
b101 &
b101 +
0'
1!
b101 (
b10 .
b10 3
b101 %
b101 -
1"
#120000
0"
#125000
b0 0
b0 1
b1 .
b1 3
1"
#130000
0"
#135000
b1001 &
b1001 +
1)
b1001 (
1'
b10 0
b10 1
b0 .
b0 3
1"
#140000
0"
#145000
b1010 &
b1010 +
0!
b1010 (
0'
b1001 %
b1001 -
b10 .
b10 3
1"
#150000
0"
#155000
b1011 &
b1011 +
b1011 (
b1010 %
b1010 -
1"
#160000
0"
#165000
b1100 &
b1100 +
b1100 (
b1011 %
b1011 -
1"
